{
  "annotations": {
    "list": [
      {
        "builtIn": 1,
        "datasource": {
          "type": "grafana",
          "uid": "-- Grafana --"
        },
        "enable": true,
        "hide": true,
        "iconColor": "rgba(0, 211, 255, 1)",
        "name": "Annotations & Alerts",
        "target": {
          "limit": 100,
          "matchAny": false,
          "tags": [],
          "type": "dashboard"
        },
        "type": "dashboard"
      }
    ]
  },
  "editable": true,
  "fiscalYearStartMonth": 0,
  "graphTooltip": 0,
  "id": 5398,
  "links": [],
  "liveNow": false,
  "panels": [
    {
      "datasource": {
        "type": "influxdb",
        "uid": "000009465"
      },
      "gridPos": {
        "h": 3,
        "w": 24,
        "x": 0,
        "y": 0
      },
      "id": 11,
      "options": {
        "code": {
          "language": "plaintext",
          "showLineNumbers": false,
          "showMiniMap": false
        },
        "content": "When querying over long time ranges, grafana aggregates (sums) `Metric` over larger time bins than the default ElasticSearch/OpenSearch ones (15m) to lower the number of data points\nit has to plot.\n\nTo account for this, `Metric` is calculated as the `Metric` per 15min, regardless of the actual bin size displayed",
        "mode": "markdown"
      },
      "pluginVersion": "10.1.5",
      "title": "Note",
      "type": "text"
    },
    {
      "datasource": {
        "type": "elasticsearch",
        "uid": "iHcJcc-7z"
      },
      "description": "",
      "fieldConfig": {
        "defaults": {
          "color": {
            "mode": "palette-classic"
          },
          "custom": {
            "axisCenteredZero": false,
            "axisColorMode": "text",
            "axisLabel": "Jobs",
            "axisPlacement": "auto",
            "barAlignment": 0,
            "drawStyle": "line",
            "fillOpacity": 20,
            "gradientMode": "none",
            "hideFrom": {
              "legend": false,
              "tooltip": false,
              "viz": false
            },
            "insertNulls": false,
            "lineInterpolation": "linear",
            "lineWidth": 1,
            "pointSize": 5,
            "scaleDistribution": {
              "type": "linear"
            },
            "showPoints": "auto",
            "spanNulls": false,
            "stacking": {
              "group": "A",
              "mode": "normal"
            },
            "thresholdsStyle": {
              "mode": "off"
            }
          },
          "mappings": [],
          "thresholds": {
            "mode": "absolute",
            "steps": [
              {
                "color": "green",
                "value": null
              },
              {
                "color": "red",
                "value": 80
              }
            ]
          },
          "unit": "si:"
        },
        "overrides": []
      },
      "gridPos": {
        "h": 9,
        "w": 8,
        "x": 0,
        "y": 3
      },
      "id": 2,
      "maxPerRow": 3,
      "options": {
        "legend": {
          "calcs": [
            "max",
            "mean",
            "sum"
          ],
          "displayMode": "table",
          "placement": "bottom",
          "showLegend": true
        },
        "tooltip": {
          "mode": "multi",
          "sort": "desc"
        }
      },
      "repeat": "query0",
      "repeatDirection": "h",
      "targets": [
        {
          "alias": "",
          "bucketAggs": [
            {
              "field": "Status",
              "id": "3",
              "settings": {
                "min_doc_count": "1",
                "order": "desc",
                "orderBy": "1",
                "size": "0"
              },
              "type": "terms"
            },
            {
              "field": "timestamp",
              "id": "2",
              "settings": {
                "interval": "1h"
              },
              "type": "date_histogram"
            }
          ],
          "datasource": {
            "type": "elasticsearch",
            "uid": "iHcJcc-7z"
          },
          "metrics": [
            {
              "field": "Jobs",
              "id": "1",
              "settings": {
                "missing": "0",
                "script": "_value * 3600 / $__interval_ms * 250"
              },
              "type": "sum"
            }
          ],
          "query": "Status: (Running OR Waiting OR Deleted OR Completed OR Checking OR Stalled OR Matched OR Staging OR Received OR Rescheduled) AND Site: $query0",
          "refId": "A",
          "timeField": "timestamp"
        }
      ],
      "title": "$query0 (ES)",
      "transformations": [],
      "type": "timeseries"
    }
  ],
  "refresh": "",
  "schemaVersion": 38,
  "style": "dark",
  "tags": [],
  "templating": {
    "list": [
      {
        "current": {
          "selected": true,
          "text": [
            "LCG.CERN.cern",
            "LCG.CNAF.it",
            "LCG.GRIDKA.de",
            "LCG.IN2P3.fr",
            "LCG.PIC.es",
            "LCG.RAL.uk",
            "LCG.NCBJ.pl",
            "LCG.SARA.nl",
            "LCG.NIKHEF.nl"
          ],
          "value": [
            "LCG.CERN.cern",
            "LCG.CNAF.it",
            "LCG.GRIDKA.de",
            "LCG.IN2P3.fr",
            "LCG.PIC.es",
            "LCG.RAL.uk",
            "LCG.NCBJ.pl",
            "LCG.SARA.nl",
            "LCG.NIKHEF.nl"
          ]
        },
        "hide": 0,
        "includeAll": false,
        "multi": true,
        "name": "query0",
        "options": [
          {
            "selected": true,
            "text": "LCG.CERN.cern",
            "value": "LCG.CERN.cern"
          },
          {
            "selected": true,
            "text": "LCG.CNAF.it",
            "value": "LCG.CNAF.it"
          },
          {
            "selected": true,
            "text": "LCG.GRIDKA.de",
            "value": "LCG.GRIDKA.de"
          },
          {
            "selected": true,
            "text": "LCG.IN2P3.fr",
            "value": "LCG.IN2P3.fr"
          },
          {
            "selected": true,
            "text": "LCG.PIC.es",
            "value": "LCG.PIC.es"
          },
          {
            "selected": true,
            "text": "LCG.RAL.uk",
            "value": "LCG.RAL.uk"
          },
          {
            "selected": true,
            "text": "LCG.NCBJ.pl",
            "value": "LCG.NCBJ.pl"
          },
          {
            "selected": true,
            "text": "LCG.SARA.nl",
            "value": "LCG.SARA.nl"
          },
          {
            "selected": true,
            "text": "LCG.NIKHEF.nl",
            "value": "LCG.NIKHEF.nl"
          }
        ],
        "query": "LCG.CERN.cern,LCG.CNAF.it,LCG.GRIDKA.de,LCG.IN2P3.fr,LCG.PIC.es,LCG.RAL.uk,LCG.NCBJ.pl,LCG.SARA.nl,LCG.NIKHEF.nl",
        "queryValue": "",
        "skipUrlSync": false,
        "type": "custom"
      }
    ]
  },
  "time": {
    "from": "now-7d",
    "to": "now"
  },
  "timepicker": {},
  "timezone": "",
  "title": "T0-1 Sites",
  "uid": "-vXpnq0Vk",
  "version": 6,
  "weekStart": ""
}
